CHIR HIV RV306 Vaginal - Throughput Analysis
…
Load and Preprocessing data

## Load data
df <- 
  aws.s3::s3readRDS(filt_data_obj, bucket) %>%
  .[[1]] %>%
  tibble::as_tibble()

df

#> # A tibble: 1,443 × 3
#>    SampleID Step          value
#>    <ord>    <ord>         <int>
#>  1 S014117  QFailReads  1002747
#>  2 S014255  QFailReads 13565260
#>  3 S014196  QFailReads   934245
#>  4 S014207  QFailReads   984436
#>  5 S014287  QFailReads  1311930
#>  6 S014521  QFailReads   885726
#>  7 S014264  QFailReads  3297456
#>  8 S014223  QFailReads  1164790
#>  9 S014288  QFailReads  2204796
#> 10 S014128  QFailReads   724235
#> # ℹ 1,433 more rows
…
