CHIR HIV RV306 Vaginal - Global Description
…
## Count of two predominant taxas per sample
mre %>% 
  metar::get_taxa("virgo", "barplots") %>%
  purrr::pluck("ta1", "top_50", "rel_abundance", "bray_hclust_order_barplot", "data") %>%
  dplyr::group_by(SampleID) %>%
  dplyr::slice_max(Abundance, n = 2) %>%
  dplyr::ungroup() %>%
  dplyr::count(Species, sort = TRUE)

#> # A tibble: 23 × 2
#>    Species                      n
#>    <fct>                    <int>
#>  1 Gardnerella_vaginalis      246
#>  2 Lactobacillus_iners        238
#>  3 Lactobacillus_crispatus    192
#>  4 Atopobium_vaginae          120
#>  5 Lactobacillus_jensenii      79
#>  6 Lactobacillus_gasseri       16
#>  7 BVAB1                       14
#>  8 Prevotella_bivia            13
#>  9 Prevotella_amnii             9
#> 10 Streptococcus_agalactiae     7
#> # ℹ 13 more rows
…
